__     __                   _  _         _   ___    ____   _                 _               
\ \   / /  __ _   __ _   __| |(_) _ __  / | / _ \  / ___| | |_   __ _  _ __ | |_   ___  _ __ 
 \ \ / /  / _` | / _` | / _` || || '_ \ | || | | | \___ \ | __| / _` || '__|| __| / _ \| '__|
  \ V /  | (_| || (_| || (_| || || | | || || |_| |  ___) || |_ | (_| || |   | |_ |  __/| |   
   \_/    \__,_| \__,_| \__,_||_||_| |_||_| \___/  |____/  \__| \__,_||_|    \__| \___||_|   
                                                                                             
